Introdução ao uso de dados geoespaciais no R
…
# 4. readr, readxl e writexl

## readr

### **Formato .csv**

```r
# importar sites com here
si <- readr::read_csv(here::here("03_dados", "tabelas", "ATLANTIC_AMPHIBIANS_sites.csv"),
                      locale = readr::locale(encoding = "latin1"))
si
```

```
## # A tibble: 1,163 × 25
##    id      reference_number species_number record sampled_habitat active_methods
##    <chr>              <dbl>          <dbl> <chr>  <chr>           <chr>         
##  1 amp1001             1001             19 ab     fo,ll           as            
##  2 amp1002             1002             16 co     fo,la,ll        as            
##  3 amp1003             1002             14 co     fo,la,ll        as            
##  4 amp1004             1002             13 co     fo,la,ll        as            
##  5 amp1005             1003             30 co     fo,ll,br        as            
##  6 amp1006             1004             42 co     tp,pp,la,ll,is  <NA>          
##  7 amp1007             1005             23 co     sp              as            
##  8 amp1008             1005             19 co     sp,la,sw        as,sb,tr      
##  9 amp1009             1005             13 ab     fo              <NA>          
## 10 amp1010             1006              1 ab     fo              <NA>          
## # … with 1,153 more rows, and 19 more variables: passive_methods <chr>,
## #   complementary_methods <chr>, period <chr>, month_start <dbl>,
## #   year_start <dbl>, month_finish <dbl>, year_finish <dbl>,
## #   effort_months <dbl>, country <chr>, state <chr>, state_abbreviation <chr>,
## #   municipality <chr>, site <chr>, latitude <dbl>, longitude <dbl>,
## #   coordinate_precision <chr>, altitude <dbl>, temperature <dbl>,
## #   precipitation <dbl>
```
…
# 4. readr, readxl e writexl

## readr

### **Formato .csv**

```r
# importar sites sem here
si <- readr::read_csv("./03_dados/tabelas/ATLANTIC_AMPHIBIANS_sites.csv",
                      locale = readr::locale(encoding = "latin1"))
si
```

```
## # A tibble: 1,163 × 25
##    id      reference_number species_number record sampled_habitat active_methods
##    <chr>              <dbl>          <dbl> <chr>  <chr>           <chr>         
##  1 amp1001             1001             19 ab     fo,ll           as            
##  2 amp1002             1002             16 co     fo,la,ll        as            
##  3 amp1003             1002             14 co     fo,la,ll        as            
##  4 amp1004             1002             13 co     fo,la,ll        as            
##  5 amp1005             1003             30 co     fo,ll,br        as            
##  6 amp1006             1004             42 co     tp,pp,la,ll,is  <NA>          
##  7 amp1007             1005             23 co     sp              as            
##  8 amp1008             1005             19 co     sp,la,sw        as,sb,tr      
##  9 amp1009             1005             13 ab     fo              <NA>          
## 10 amp1010             1006              1 ab     fo              <NA>          
## # … with 1,153 more rows, and 19 more variables: passive_methods <chr>,
## #   complementary_methods <chr>, period <chr>, month_start <dbl>,
## #   year_start <dbl>, month_finish <dbl>, year_finish <dbl>,
## #   effort_months <dbl>, country <chr>, state <chr>, state_abbreviation <chr>,
## #   municipality <chr>, site <chr>, latitude <dbl>, longitude <dbl>,
## #   coordinate_precision <chr>, altitude <dbl>, temperature <dbl>,
## #   precipitation <dbl>
```
…
# 4. readr, readxl e writexl

## readr

### **Formato .txt**

```r
# importar sites
si <- readr::read_tsv(here::here("03_dados", "tabelas", "ATLANTIC_AMPHIBIANS_sites.txt"))
si
```

```
## # A tibble: 1,163 × 25
##    id      reference_number species_number record sampled_habitat active_methods
##    <chr>              <dbl>          <dbl> <chr>  <chr>           <chr>         
##  1 amp1001             1001             19 ab     fo,ll           as            
##  2 amp1002             1002             16 co     fo,la,ll        as            
##  3 amp1003             1002             14 co     fo,la,ll        as            
##  4 amp1004             1002             13 co     fo,la,ll        as            
##  5 amp1005             1003             30 co     fo,ll,br        as            
##  6 amp1006             1004             42 co     tp,pp,la,ll,is  <NA>          
##  7 amp1007             1005             23 co     sp              as            
##  8 amp1008             1005             19 co     sp,la,sw        as,sb,tr      
##  9 amp1009             1005             13 ab     fo              <NA>          
## 10 amp1010             1006              1 ab     fo              <NA>          
## # … with 1,153 more rows, and 19 more variables: passive_methods <chr>,
## #   complementary_methods <chr>, period <chr>, month_start <dbl>,
## #   year_start <dbl>, month_finish <dbl>, year_finish <dbl>,
## #   effort_months <dbl>, country <chr>, state <chr>, state_abbreviation <chr>,
## #   municipality <chr>, site <chr>, latitude <dbl>, longitude <dbl>,
## #   coordinate_precision <chr>, altitude <dbl>, temperature <dbl>,
## #   precipitation <dbl>
```
…
# 4. readr, readxl e writexl

## **Formato .xlsx**

### O argumento `sheet` define a aba a ser importada (número ou nome)

```r
# importar sites
si <- readxl::read_xlsx(here::here("03_dados", "tabelas", "ATLANTIC_AMPHIBIANS_sites.xlsx"), 
                        sheet = 1)
si
```

```
## # A tibble: 1,163 × 25
##    id      reference_number species_number record sampled_habitat active_methods
##    <chr>              <dbl>          <dbl> <chr>  <chr>           <chr>         
##  1 amp1001             1001             19 ab     fo,ll           as            
##  2 amp1002             1002             16 co     fo,la,ll        as            
##  3 amp1003             1002             14 co     fo,la,ll        as            
##  4 amp1004             1002             13 co     fo,la,ll        as            
##  5 amp1005             1003             30 co     fo,ll,br        as            
##  6 amp1006             1004             42 co     tp,pp,la,ll,is  NA            
##  7 amp1007             1005             23 co     sp              as            
##  8 amp1008             1005             19 co     sp,la,sw        as,sb,tr      
##  9 amp1009             1005             13 ab     fo              NA            
## 10 amp1010             1006              1 ab     fo              NA            
## # … with 1,153 more rows, and 19 more variables: passive_methods <chr>,
## #   complementary_methods <chr>, period <chr>, month_start <chr>,
## #   year_start <chr>, month_finish <chr>, year_finish <chr>,
## #   effort_months <chr>, country <chr>, state <chr>, state_abbreviation <chr>,
## #   municipality <chr>, site <chr>, latitude <dbl>, longitude <dbl>,
## #   coordinate_precision <chr>, altitude <dbl>, temperature <chr>,
## #   precipitation <chr>
```
…
---

# 8. dplyr

## Permite manipular os dados de forma simples

```r
# selecionar colunas
penguins_dplyr <- penguins %>% 
  dplyr::select(species, bill_length_mm, bill_depth_mm, flipper_length_mm, body_mass_g)
penguins_dplyr
```

```
## # A tibble: 344 × 5
##    species bill_length_mm bill_depth_mm flipper_length_mm body_mass_g
##    <fct>            <dbl>         <dbl>             <int>       <int>
##  1 Adelie            39.1          18.7               181        3750
##  2 Adelie            39.5          17.4               186        3800
##  3 Adelie            40.3          18                 195        3250
##  4 Adelie            NA            NA                  NA          NA
##  5 Adelie            36.7          19.3               193        3450
##  6 Adelie            39.3          20.6               190        3650
##  7 Adelie            38.9          17.8               181        3625
##  8 Adelie            39.2          19.6               195        4675
##  9 Adelie            34.1          18.1               193        3475
## 10 Adelie            42            20.2               190        4250
## # … with 334 more rows
```
---

# 8. dplyr
## Permite manipular os dados de forma simples

```r
# selecionar colunas e retirar linhas com nas
penguins_dplyr <- penguins %>% 
  dplyr::select(species, bill_length_mm, bill_depth_mm, flipper_length_mm, body_mass_g) %>% 
  dplyr::filter(if_all(where(is.numeric), ~ !is.na(.)))
penguins_dplyr
```

```
## # A tibble: 342 × 5
##    species bill_length_mm bill_depth_mm flipper_length_mm body_mass_g
##    <fct>            <dbl>         <dbl>             <int>       <int>
##  1 Adelie            39.1          18.7               181        3750
##  2 Adelie            39.5          17.4               186        3800
##  3 Adelie            40.3          18                 195        3250
##  4 Adelie            36.7          19.3               193        3450
##  5 Adelie            39.3          20.6               190        3650
##  6 Adelie            38.9          17.8               181        3625
##  7 Adelie            39.2          19.6               195        4675
##  8 Adelie            34.1          18.1               193        3475
##  9 Adelie            42            20.2               190        4250
## 10 Adelie            37.8          17.1               186        3300
## # … with 332 more rows
```
…
## Solução

```r
# exercicio 12
penguins_log <- penguins %>% 
  dplyr::mutate(bill_length_mm_log10 = log10(bill_length_mm), 
                bill_depth_mm_log10 = log10(bill_depth_mm), 
                flipper_length_mm_log10 = log10(flipper_length_mm), 
                body_mass_g_log10 = log10(body_mass_g))
penguins_log
```

```
## # A tibble: 344 × 12
##    species island    bill_length_mm bill_depth_mm flipper_length_mm body_mass_g
##    <fct>   <fct>              <dbl>         <dbl>             <int>       <int>
##  1 Adelie  Torgersen           39.1          18.7               181        3750
##  2 Adelie  Torgersen           39.5          17.4               186        3800
##  3 Adelie  Torgersen           40.3          18                 195        3250
##  4 Adelie  Torgersen           NA            NA                  NA          NA
##  5 Adelie  Torgersen           36.7          19.3               193        3450
##  6 Adelie  Torgersen           39.3          20.6               190        3650
##  7 Adelie  Torgersen           38.9          17.8               181        3625
##  8 Adelie  Torgersen           39.2          19.6               195        4675
##  9 Adelie  Torgersen           34.1          18.1               193        3475
## 10 Adelie  Torgersen           42            20.2               190        4250
## # … with 334 more rows, and 6 more variables: sex <fct>, year <int>,
## #   bill_length_mm_log10 <dbl>, bill_depth_mm_log10 <dbl>,
## #   flipper_length_mm_log10 <dbl>, body_mass_g_log10 <dbl>
```
…
---

# Exercício 13

## Solução

```r
# exercicio 13
penguins_arrange <- penguins %>% 
  dplyr::arrange(-body_mass_g)
penguins_arrange
```

```
## # A tibble: 344 × 8
##    species island bill_length_mm bill_depth_mm flipper_length_mm body_mass_g
##    <fct>   <fct>           <dbl>         <dbl>             <int>       <int>
##  1 Gentoo  Biscoe           49.2          15.2               221        6300
##  2 Gentoo  Biscoe           59.6          17                 230        6050
##  3 Gentoo  Biscoe           51.1          16.3               220        6000
##  4 Gentoo  Biscoe           48.8          16.2               222        6000
##  5 Gentoo  Biscoe           45.2          16.4               223        5950
##  6 Gentoo  Biscoe           49.8          15.9               229        5950
##  7 Gentoo  Biscoe           48.4          14.6               213        5850
##  8 Gentoo  Biscoe           49.3          15.7               217        5850
##  9 Gentoo  Biscoe           55.1          16                 230        5850
## 10 Gentoo  Biscoe           49.5          16.2               229        5800
## # … with 334 more rows, and 2 more variables: sex <fct>, year <int>
```
…
# Exercício 15

## Solução

```r
# exercicio 15
penguins_sample <- penguins %>% 
  dplyr::filter(body_mass_g < 5000) %>% 
  dplyr::slice_sample(prop = .7)
penguins_sample
```

```
## # A tibble: 192 × 8
##    species   island bill_length_mm bill_depth_mm flipper_length_mm body_mass_g
##    <fct>     <fct>           <dbl>         <dbl>             <int>       <int>
##  1 Gentoo    Biscoe           47.2          13.7               214        4925
##  2 Adelie    Dream            39.6          18.1               186        4450
##  3 Gentoo    Biscoe           45.5          13.9               210        4200
##  4 Chinstrap Dream            50.8          18.5               201        4450
##  5 Adelie    Dream            41.1          17.5               190        3900
##  6 Chinstrap Dream            50.7          19.7               203        4050
##  7 Gentoo    Biscoe           45.8          14.6               210        4200
##  8 Adelie    Dream            40.6          17.2               187        3475
##  9 Adelie    Dream            39.5          16.7               178        3250
## 10 Adelie    Biscoe           34.5          18.1               187        2900
## # … with 182 more rows, and 2 more variables: sex <fct>, year <int>
```
…
