Introdução ao uso de dados geoespaciais no R
…
---

# 4. Importar dados vetoriais

## Dados de uma tabela de coordenadas

```r
# importar tabela
si <- readr::read_csv(
  here::here("03_dados", "tabelas", "ATLANTIC_AMPHIBIANS_sites.csv"))
si
```

```
## # A tibble: 1,163 × 25
##    id      reference_number species_number record sampled_habitat active_methods
##    <chr>              <dbl>          <dbl> <chr>  <chr>           <chr>         
##  1 amp1001             1001             19 ab     fo,ll           as            
##  2 amp1002             1002             16 co     fo,la,ll        as            
##  3 amp1003             1002             14 co     fo,la,ll        as            
##  4 amp1004             1002             13 co     fo,la,ll        as            
##  5 amp1005             1003             30 co     fo,ll,br        as            
##  6 amp1006             1004             42 co     tp,pp,la,ll,is  <NA>          
##  7 amp1007             1005             23 co     sp              as            
##  8 amp1008             1005             19 co     sp,la,sw        as,sb,tr      
##  9 amp1009             1005             13 ab     fo              <NA>          
## 10 amp1010             1006              1 ab     fo              <NA>          
## # … with 1,153 more rows, and 19 more variables: passive_methods <chr>,
## #   complementary_methods <chr>, period <chr>, month_start <dbl>,
## #   year_start <dbl>, month_finish <dbl>, year_finish <dbl>,
## #   effort_months <dbl>, country <chr>, state <chr>, state_abbreviation <chr>,
## #   municipality <chr>, site <chr>, latitude <dbl>, longitude <dbl>,
## #   coordinate_precision <chr>, altitude <dbl>, temperature <dbl>,
## #   precipitation <dbl>
```
…
```r
# converter para sf
si_ve <- si %>% 
  sf::st_as_sf(coords = c("longitude", "latitude"), crs = 4326)
si_ve
```

```
## Simple feature collection with 1163 features and 23 fields
## Geometry type: POINT
## Dimension:     XY
## Bounding box:  xmin: -56.74194 ymin: -33.51083 xmax: -34.79667 ymax: -3.51525
## Geodetic CRS:  WGS 84
## # A tibble: 1,163 × 24
##    id      reference_number species_number record sampled_habitat active_methods
##  * <chr>              <dbl>          <dbl> <chr>  <chr>           <chr>         
##  1 amp1001             1001             19 ab     fo,ll           as            
##  2 amp1002             1002             16 co     fo,la,ll        as            
##  3 amp1003             1002             14 co     fo,la,ll        as            
##  4 amp1004             1002             13 co     fo,la,ll        as            
##  5 amp1005             1003             30 co     fo,ll,br        as            
##  6 amp1006             1004             42 co     tp,pp,la,ll,is  <NA>          
##  7 amp1007             1005             23 co     sp              as            
##  8 amp1008             1005             19 co     sp,la,sw        as,sb,tr      
##  9 amp1009             1005             13 ab     fo              <NA>          
## 10 amp1010             1006              1 ab     fo              <NA>          
## # … with 1,153 more rows, and 18 more variables: passive_methods <chr>,
## #   complementary_methods <chr>, period <chr>, month_start <dbl>,
## #   year_start <dbl>, month_finish <dbl>, year_finish <dbl>,
## #   effort_months <dbl>, country <chr>, state <chr>, state_abbreviation <chr>,
## #   municipality <chr>, site <chr>, coordinate_precision <chr>, altitude <dbl>,
## #   temperature <dbl>, precipitation <dbl>, geometry <POINT [°]>
```
…
---

# 4. Importar dados vetoriais

## Dados de pacotes: *geobr*

```r
# list all datasets available in the geobr package
geobr::list_geobr()
```

```
## # A tibble: 27 × 4
##    `function`                 geography          years                    source
##    <chr>                      <chr>              <chr>                    <chr> 
##  1 `read_country`             Country            1872, 1900, 1911, 1920,… IBGE  
##  2 `read_region`              Region             2000, 2001, 2010, 2013,… IBGE  
##  3 `read_state`               States             1872, 1900, 1911, 1920,… IBGE  
##  4 `read_meso_region`         Meso region        2000, 2001, 2010, 2013,… IBGE  
##  5 `read_micro_region`        Micro region       2000, 2001, 2010, 2013,… IBGE  
##  6 `read_intermediate_region` Intermediate regi… 2017, 2019, 2020         IBGE  
##  7 `read_immediate_region`    Immediate region   2017, 2019, 2020         IBGE  
##  8 `read_municipality`        Municipality       1872, 1900, 1911, 1920,… IBGE  
##  9 `read_municipal_seat`      Municipality seat… 1872, 1900, 1911, 1920,… IBGE  
## 10 `read_weighting_area`      Census weighting … 2010                     IBGE  
## # … with 17 more rows
```
…
